[
null,
{"id":1,"expanded":true,"name":"イベント置き場[TE]","order":1,"parentId":0,"scrollX":1092,"scrollY":637.3333333333334},
{"id":2,"expanded":false,"name":"イベント置き場[配置用]","order":2,"parentId":1,"scrollX":1404,"scrollY":819.4285714285713},
{"id":3,"expanded":false,"name":"テストマップ","order":3,"parentId":1,"scrollX":811,"scrollY":722},
{"id":4,"expanded":false,"name":"初期設定","order":4,"parentId":0,"scrollX":574,"scrollY":504},
{"id":5,"expanded":true,"name":"現代の街","order":5,"parentId":0,"scrollX":2458,"scrollY":1392},
{"id":6,"expanded":false,"name":"寺屋内","order":14,"parentId":120,"scrollX":832,"scrollY":640},
{"id":7,"expanded":false,"name":"塾","order":16,"parentId":5,"scrollX":1965.6,"scrollY":1147.2},
{"id":8,"expanded":false,"name":"メイド喫茶","order":15,"parentId":5,"scrollX":1228.5,"scrollY":717},
null,
null,
null,
null,
null,
null,
null,
null,
null,
null,
null,
null,
null,
null,
{"id":23,"expanded":false,"name":"カラオケ","order":8,"parentId":5,"scrollX":819,"scrollY":478},
null,
null,
null,
null,
null,
null,
{"id":30,"expanded":true,"name":"一軒家","order":6,"parentId":5,"scrollX":1088,"scrollY":624},
{"id":31,"expanded":false,"name":"ジム","order":7,"parentId":5,"scrollX":832,"scrollY":640},
{"id":32,"expanded":false,"name":"絵画教室","order":9,"parentId":5,"scrollX":1404,"scrollY":819.4285714285713},
{"id":33,"expanded":false,"name":"書店","order":11,"parentId":5,"scrollX":1404,"scrollY":819.4285714285713},
{"id":34,"expanded":false,"name":"SM風俗","order":12,"parentId":5,"scrollX":1404,"scrollY":819.4285714285713},
null,
null,
null,
null,
null,
null,
null,
null,
null,
null,
null,
null,
null,
null,
null,
null,
null,
null,
null,
null,
null,
null,
null,
null,
null,
null,
null,
null,
null,
null,
null,
null,
null,
null,
null,
null,
null,
null,
null,
null,
null,
null,
null,
null,
null,
null,
null,
null,
null,
null,
null,
null,
null,
null,
null,
null,
null,
null,
null,
null,
null,
null,
null,
null,
null,
null,
null,
null,
null,
null,
null,
null,
null,
null,
null,
null,
null,
null,
null,
null,
null,
null,
null,
null,
null,
{"id":120,"expanded":true,"name":"寺","order":13,"parentId":5,"scrollX":832,"scrollY":640},
null,
{"id":122,"expanded":false,"name":"映画館","order":10,"parentId":5,"scrollX":1404,"scrollY":819.4285714285713}
]